%YAML 1.1
%TAG !u! tag:unity3d.com,2011:
--- !u!21 &2100000
Material:
  serializedVersion: 6
  m_ObjectHideFlags: 0
  m_CorrespondingSourceObject: {fileID: 0}
  m_PrefabInstance: {fileID: 0}
  m_PrefabAsset: {fileID: 0}
  m_Name: Texture
  m_Shader: {fileID: 4800000, guid: a422fc3ad3a414781a203ae44060799b, type: 3}
  m_ShaderKeywords: 
  m_LightmapFlags: 5
  m_EnableInstancingVariants: 0
  m_DoubleSidedGI: 0
  m_CustomRenderQueue: -1
  stringTagMap: {}
  disabledShaderPasses: []
  m_SavedProperties:
    serializedVersion: 3
    m_TexEnvs:
    - _Texture:
        m_Texture: {fileID: 2800000, guid: da824b814813147e98032b438e1b41e0, type: 3}
        m_Scale: {x: 0.05, y: 0.05}
        m_Offset: {x: 0, y: 0}
    m_Floats:
    - _Angle: 45
    - _Cutoff: 0.5
    - _Divisions: -0.29
    - _OutlineWidth: 2.57
    m_Colors:
    - _Color: {r: 0.8455882, g: 0.8455882, b: 0.8455882, a: 1}
    - _OutlineColor: {r: 0, g: 0, b: 0, a: 1}
    - _StrokeColor: {r: 0.04282008, g: 0.26558295, b: 0.4852941, a: 1}
